…
We want to summarize the data based on temprature.

First, add a `factor` variable `tempcat` that indicates weither the `tmpd` is greater tha 80 (`hot`) or not (`cold`). The output of `factor(1* (tmp > 80),..)` is ones and zeros because `True` is 1 and `False` is 0 in `R`. Then add labels to the output categories `cold` for 0 and `hot` for 1. Then group the data by this factor variable, and finally summarize.

``` r
chicago <- mutate(chicago, tempcat = factor(1* (tmpd > 80), labels=c("cold", "hot")))

## Create a new dataframe = chicago grouped by tempcat variable 
hotcold <- group_by(chicago, tempcat)
hotcold
```

    ## Source: local data frame [6,940 x 10]
    ## Groups: tempcat [3]
    ## 
    ##     city  tmpd dewpoint       date     pm25 pm10tmean2  o3tmean2 no2tmean2
    ##    <chr> <dbl>    <dbl>     <date>    <dbl>      <dbl>     <dbl>     <dbl>
    ## 1   chic    35     30.1 2005-12-31 15.00000       23.5  2.531250  13.25000
    ## 2   chic    36     31.0 2005-12-30 15.05714       19.2  3.034420  22.80556
    ## 3   chic    35     29.4 2005-12-29  7.45000       23.5  6.794837  19.97222
    ## 4   chic    37     34.5 2005-12-28 17.75000       27.5  3.260417  19.28563
    ## 5   chic    40     33.6 2005-12-27 23.56000       27.0  4.468750  23.50000
    ## 6   chic    35     29.6 2005-12-26  8.40000        8.5 14.041667  16.81944
    ## 7   chic    35     32.1 2005-12-25  6.70000        8.0 14.354167  13.79167
    ## 8   chic    37     35.2 2005-12-24 30.77143       25.2  1.770833  31.98611
    ## 9   chic    41     32.6 2005-12-23 32.90000       34.5  6.906250  29.08333
    ## 10  chic    22     23.3 2005-12-22 36.65000       42.5  5.385417  33.73026
    ## # ... with 6,930 more rows, and 2 more variables: pm25detrend <dbl>,
    ## #   tempcat <fctr>
…
